[
  {
    "index": 0,
    "guid": "d40376d8-f881-49c9-8aa5-08b16f8bf9b7",
    "picture": "http://placehold.it/32x32",
    "text": "С другой стороны постоянный количественный рост и сфера нашей активности представляет собой интересный эксперимент проверки позиций, занимаемых участниками в отношении поставленных задач. Значимость этих проблем настолько очевидна, что постоянное информационно-пропагандистское обеспечение нашей деятельности обеспечивает широкому кругу (специалистов) участие в формировании форм развития. Равным образом консультация с широким активом играет важную роль в формировании позиций, занимаемых участниками в отношении поставленных задач.",
    "date": "2016/06/04",
    "title": "Здесь крутой тайтл",
    "likes": [],
    "comments": [],
    "firebaseId": "YJ09LyXISCUvDgpmQME2lO0zx8H3",
    "profileId": "5a9e4cb6667f87c20aa1a023"
  },
  {
    "index": 1,
    "guid": "b030672b-e73a-4535-b2fc-63a2c90dd2e6",
    "picture": "http://placehold.it/32x32",
    "text": "С другой стороны постоянный количественный рост и сфера нашей активности представляет собой интересный эксперимент проверки позиций, занимаемых участниками в отношении поставленных задач. Значимость этих проблем настолько очевидна, что постоянное информационно-пропагандистское обеспечение нашей деятельности обеспечивает широкому кругу (специалистов) участие в формировании форм развития. Равным образом консультация с широким активом играет важную роль в формировании позиций, занимаемых участниками в отношении поставленных задач.",
    "date": "2016/06/04",
    "title": "Здесь крутой тайтл",
    "likes": [],
    "firebaseId": "YJ09LyXISCUvDgpmQME2lO0zx8H3",
    "comments": []
  },
  {
    "index": 2,
    "guid": "d40376d8-f881-49c9-8aa5-08b16f8bf9b7",
    "picture": "http://placehold.it/32x32",
    "text": "С другой стороны постоянный количественный рост и сфера нашей активности представляет собой интересный эксперимент проверки позиций, занимаемых участниками в отношении поставленных задач. Значимость этих проблем настолько очевидна, что постоянное информационно-пропагандистское обеспечение нашей деятельности обеспечивает широкому кругу (специалистов) участие в формировании форм развития. Равным образом консультация с широким активом играет важную роль в формировании позиций, занимаемых участниками в отношении поставленных задач.",
    "date": "2016/06/04",
    "title": "Здесь крутой тайтл",
    "firebaseId": "5a0ac271253e96d13d79a52a",
    "likes": [],
    "comments": []
  },
  {
    "index": 3,
    "guid": "d40376d8-f881-49c9-8aa5-08b16f8bf9b7",
    "picture": "http://placehold.it/32x32",
    "text": "С другой стороны постоянный количественный рост и сфера нашей активности представляет собой интересный эксперимент проверки позиций, занимаемых участниками в отношении поставленных задач. Значимость этих проблем настолько очевидна, что постоянное информационно-пропагандистское обеспечение нашей деятельности обеспечивает широкому кругу (специалистов) участие в формировании форм развития. Равным образом консультация с широким активом играет важную роль в формировании позиций, занимаемых участниками в отношении поставленных задач.",
    "date": "2016/06/04",
    "title": "Здесь крутой тайтл",
    "likes": [],
    "firebaseId": "5a0ac271253e96d13d79a52a",
    "comments": [],
    "profileId": "5a9e4cb6667f87c20aa1a023"
  }
]
